<?xml version="1.0" encoding="UTF-8" standalone="no"?>
<!-- Created with Inkscape (http://www.inkscape.org/) -->

<svg
   width="210mm"
   height="297mm"
   viewBox="0 0 210 297"
   version="1.1"
   id="svg1140"
   inkscape:version="1.2.2 (b0a8486541, 2022-12-01)"
   sodipodi:docname="wayland-color-management-model.svg"
   inkscape:export-filename="wayland-color-management-model.svg.png"
   inkscape:export-xdpi="97.400978"
   inkscape:export-ydpi="97.400978"
   xmlns:inkscape="http://www.inkscape.org/namespaces/inkscape"
   xmlns:sodipodi="http://sodipodi.sourceforge.net/DTD/sodipodi-0.dtd"
   xmlns="http://www.w3.org/2000/svg"
   xmlns:svg="http://www.w3.org/2000/svg"
   xmlns:rdf="http://www.w3.org/1999/02/22-rdf-syntax-ns#"
   xmlns:cc="http://creativecommons.org/ns#"
   xmlns:dc="http://purl.org/dc/elements/1.1/">
  <sodipodi:namedview
     id="namedview1142"
     pagecolor="#ffffff"
     bordercolor="#666666"
     borderopacity="1.0"
     inkscape:showpageshadow="2"
     inkscape:pageopacity="1"
     inkscape:pagecheckerboard="0"
     inkscape:deskcolor="#d1d1d1"
     inkscape:document-units="mm"
     showgrid="true"
     inkscape:zoom="0.7483165"
     inkscape:cx="308.69291"
     inkscape:cy="558.58718"
     inkscape:window-width="1342"
     inkscape:window-height="1091"
     inkscape:window-x="78"
     inkscape:window-y="53"
     inkscape:window-maximized="0"
     inkscape:current-layer="layer1"
     showguides="true">
    <inkscape:grid
       type="xygrid"
       id="grid1144"
       units="mm"
       spacingx="1"
       spacingy="1"
       empspacing="10"
       visible="false"
       dotted="false" />
  </sodipodi:namedview>
  <defs
     id="defs1137">
    <marker
       style="overflow:visible"
       id="marker6328"
       refX="-1.7"
       refY="0"
       orient="auto-start-reverse"
       inkscape:stockid="TriangleStart"
       markerWidth="15"
       markerHeight="1"
       viewBox="0 0 5.3244081 6.1553851"
       inkscape:isstock="true"
       inkscape:collect="always"
       preserveAspectRatio="none">
      <path
         transform="scale(0.5)"
         style="fill:context-stroke;fill-rule:evenodd;stroke:context-stroke;stroke-width:1pt"
         d="M 5.77,0 -2.88,5 V -5 Z"
         id="path6326" />
    </marker>
    <marker
       style="overflow:visible"
       id="TriangleStart"
       refX="-1.7"
       refY="0"
       orient="auto-start-reverse"
       inkscape:stockid="TriangleStart"
       markerWidth="15"
       markerHeight="1"
       viewBox="0 0 5.3244081 6.1553851"
       inkscape:isstock="true"
       inkscape:collect="always"
       preserveAspectRatio="none"
       markerUnits="strokeWidth">
      <path
         transform="scale(0.5)"
         style="fill:context-stroke;fill-rule:evenodd;stroke:context-stroke;stroke-width:1pt"
         d="M 5.77,0 -2.88,5 V -5 Z"
         id="path135" />
    </marker>
    <inkscape:path-effect
       effect="bspline"
       id="path-effect5954"
       is_visible="true"
       lpeversion="1"
       weight="33.333333"
       steps="2"
       helper_size="0"
       apply_no_weight="true"
       apply_with_weight="true"
       only_selected="false" />
    <inkscape:path-effect
       effect="bspline"
       id="path-effect5677"
       is_visible="true"
       lpeversion="1"
       weight="33.333333"
       steps="2"
       helper_size="0"
       apply_no_weight="true"
       apply_with_weight="true"
       only_selected="false" />
    <inkscape:path-effect
       effect="bspline"
       id="path-effect5619"
       is_visible="true"
       lpeversion="1"
       weight="33.333333"
       steps="2"
       helper_size="0"
       apply_no_weight="true"
       apply_with_weight="true"
       only_selected="false" />
    <inkscape:path-effect
       effect="bspline"
       id="path-effect5151"
       is_visible="true"
       lpeversion="1"
       weight="33.333333"
       steps="2"
       helper_size="0"
       apply_no_weight="true"
       apply_with_weight="true"
       only_selected="false" />
    <inkscape:path-effect
       effect="bspline"
       id="path-effect4407"
       is_visible="true"
       lpeversion="1"
       weight="33.333333"
       steps="2"
       helper_size="0"
       apply_no_weight="true"
       apply_with_weight="true"
       only_selected="false" />
    <marker
       style="overflow:visible"
       id="Arrow3"
       refX="0"
       refY="0"
       orient="auto-start-reverse"
       inkscape:stockid="Arrow3"
       markerWidth="4.2071066"
       markerHeight="7"
       viewBox="0 0 4.2071068 7"
       inkscape:isstock="true"
       inkscape:collect="always"
       preserveAspectRatio="xMidYMid"
       markerUnits="strokeWidth">
      <path
         style="fill:none;stroke:context-stroke;stroke-width:1;stroke-linecap:round"
         d="M 3,-3 0,0 3,3"
         id="arrow3"
         transform="rotate(180,0.125,0)"
         sodipodi:nodetypes="ccc" />
    </marker>
    <inkscape:path-effect
       effect="bspline"
       id="path-effect2281"
       is_visible="true"
       lpeversion="1"
       weight="33.333333"
       steps="2"
       helper_size="0"
       apply_no_weight="true"
       apply_with_weight="true"
       only_selected="false" />
    <rect
       x="101.25813"
       y="17.344923"
       width="144.1802"
       height="281.46158"
       id="rect1342" />
    <marker
       style="overflow:visible"
       id="Arrow3-3"
       refX="0"
       refY="0"
       orient="auto-start-reverse"
       inkscape:stockid="Arrow3"
       markerWidth="4.2071066"
       markerHeight="7"
       viewBox="0 0 4.2071068 7"
       inkscape:isstock="true"
       inkscape:collect="always"
       preserveAspectRatio="xMidYMid"
       markerUnits="strokeWidth">
      <path
         style="fill:none;stroke:context-stroke;stroke-width:1;stroke-linecap:round"
         d="M 3,-3 0,0 3,3"
         id="arrow3-6"
         transform="rotate(180,0.125,0)"
         sodipodi:nodetypes="ccc" />
    </marker>
    <inkscape:path-effect
       effect="bspline"
       id="path-effect2281-7"
       is_visible="true"
       lpeversion="1"
       weight="33.333333"
       steps="2"
       helper_size="0"
       apply_no_weight="true"
       apply_with_weight="true"
       only_selected="false" />
    <marker
       style="overflow:visible"
       id="Arrow3-35"
       refX="0"
       refY="0"
       orient="auto-start-reverse"
       inkscape:stockid="Arrow3"
       markerWidth="4.2071066"
       markerHeight="7"
       viewBox="0 0 4.2071068 7"
       inkscape:isstock="true"
       inkscape:collect="always"
       preserveAspectRatio="xMidYMid"
       markerUnits="strokeWidth">
      <path
         style="fill:none;stroke:context-stroke;stroke-width:1;stroke-linecap:round"
         d="M 3,-3 0,0 3,3"
         id="arrow3-62"
         transform="rotate(180,0.125,0)"
         sodipodi:nodetypes="ccc" />
    </marker>
    <inkscape:path-effect
       effect="bspline"
       id="path-effect2281-9"
       is_visible="true"
       lpeversion="1"
       weight="33.333333"
       steps="2"
       helper_size="0"
       apply_no_weight="true"
       apply_with_weight="true"
       only_selected="false" />
    <marker
       style="overflow:visible"
       id="Arrow3-2"
       refX="0"
       refY="0"
       orient="auto-start-reverse"
       inkscape:stockid="Arrow3"
       markerWidth="4.2071066"
       markerHeight="7"
       viewBox="0 0 4.2071068 7"
       inkscape:isstock="true"
       inkscape:collect="always"
       preserveAspectRatio="xMidYMid"
       markerUnits="strokeWidth">
      <path
         style="fill:none;stroke:context-stroke;stroke-width:1;stroke-linecap:round"
         d="M 3,-3 0,0 3,3"
         id="arrow3-7"
         transform="rotate(180,0.125,0)"
         sodipodi:nodetypes="ccc" />
    </marker>
    <inkscape:path-effect
       effect="bspline"
       id="path-effect2281-0"
       is_visible="true"
       lpeversion="1"
       weight="33.333333"
       steps="2"
       helper_size="0"
       apply_no_weight="true"
       apply_with_weight="true"
       only_selected="false" />
    <marker
       style="overflow:visible"
       id="Arrow3-36"
       refX="0"
       refY="0"
       orient="auto-start-reverse"
       inkscape:stockid="Arrow3"
       markerWidth="4.2071066"
       markerHeight="7"
       viewBox="0 0 4.2071068 7"
       inkscape:isstock="true"
       inkscape:collect="always"
       preserveAspectRatio="xMidYMid"
       markerUnits="strokeWidth">
      <path
         style="fill:none;stroke:context-stroke;stroke-width:1;stroke-linecap:round"
         d="M 3,-3 0,0 3,3"
         id="arrow3-0"
         transform="rotate(180,0.125,0)"
         sodipodi:nodetypes="ccc" />
    </marker>
    <inkscape:path-effect
       effect="bspline"
       id="path-effect2281-6"
       is_visible="true"
       lpeversion="1"
       weight="33.333333"
       steps="2"
       helper_size="0"
       apply_no_weight="true"
       apply_with_weight="true"
       only_selected="false" />
    <marker
       style="overflow:visible"
       id="Arrow3-6"
       refX="0"
       refY="0"
       orient="auto-start-reverse"
       inkscape:stockid="Arrow3"
       markerWidth="4.2071066"
       markerHeight="7"
       viewBox="0 0 4.2071068 7"
       inkscape:isstock="true"
       inkscape:collect="always"
       preserveAspectRatio="xMidYMid"
       markerUnits="strokeWidth">
      <path
         style="fill:none;stroke:context-stroke;stroke-width:1;stroke-linecap:round"
         d="M 3,-3 0,0 3,3"
         id="arrow3-1"
         transform="rotate(180,0.125,0)"
         sodipodi:nodetypes="ccc" />
    </marker>
    <inkscape:path-effect
       effect="bspline"
       id="path-effect2281-8"
       is_visible="true"
       lpeversion="1"
       weight="33.333333"
       steps="2"
       helper_size="0"
       apply_no_weight="true"
       apply_with_weight="true"
       only_selected="false" />
    <marker
       style="overflow:visible"
       id="Arrow3-9"
       refX="0"
       refY="0"
       orient="auto-start-reverse"
       inkscape:stockid="Arrow3"
       markerWidth="4.2071066"
       markerHeight="7"
       viewBox="0 0 4.2071068 7"
       inkscape:isstock="true"
       inkscape:collect="always"
       preserveAspectRatio="xMidYMid"
       markerUnits="strokeWidth">
      <path
         style="fill:none;stroke:context-stroke;stroke-width:1;stroke-linecap:round"
         d="M 3,-3 0,0 3,3"
         id="arrow3-2"
         transform="rotate(180,0.125,0)"
         sodipodi:nodetypes="ccc" />
    </marker>
    <inkscape:path-effect
       effect="bspline"
       id="path-effect2281-02"
       is_visible="true"
       lpeversion="1"
       weight="33.333333"
       steps="2"
       helper_size="0"
       apply_no_weight="true"
       apply_with_weight="true"
       only_selected="false" />
    <marker
       style="overflow:visible"
       id="Arrow3-7"
       refX="0"
       refY="0"
       orient="auto-start-reverse"
       inkscape:stockid="Arrow3"
       markerWidth="4.2071066"
       markerHeight="7"
       viewBox="0 0 4.2071068 7"
       inkscape:isstock="true"
       inkscape:collect="always"
       preserveAspectRatio="xMidYMid"
       markerUnits="strokeWidth">
      <path
         style="fill:none;stroke:context-stroke;stroke-width:1;stroke-linecap:round"
         d="M 3,-3 0,0 3,3"
         id="arrow3-5"
         transform="rotate(180,0.125,0)"
         sodipodi:nodetypes="ccc" />
    </marker>
    <inkscape:path-effect
       effect="bspline"
       id="path-effect2281-92"
       is_visible="true"
       lpeversion="1"
       weight="33.333333"
       steps="2"
       helper_size="0"
       apply_no_weight="true"
       apply_with_weight="true"
       only_selected="false" />
    <marker
       style="overflow:visible"
       id="Arrow3-97"
       refX="0"
       refY="0"
       orient="auto-start-reverse"
       inkscape:stockid="Arrow3"
       markerWidth="4.2071066"
       markerHeight="7"
       viewBox="0 0 4.2071068 7"
       inkscape:isstock="true"
       inkscape:collect="always"
       preserveAspectRatio="xMidYMid"
       markerUnits="strokeWidth">
      <path
         style="fill:none;stroke:context-stroke;stroke-width:1;stroke-linecap:round"
         d="M 3,-3 0,0 3,3"
         id="arrow3-3"
         transform="rotate(180,0.125,0)"
         sodipodi:nodetypes="ccc" />
    </marker>
    <inkscape:path-effect
       effect="bspline"
       id="path-effect2281-61"
       is_visible="true"
       lpeversion="1"
       weight="33.333333"
       steps="2"
       helper_size="0"
       apply_no_weight="true"
       apply_with_weight="true"
       only_selected="false" />
    <inkscape:path-effect
       effect="bspline"
       id="path-effect5151-3"
       is_visible="true"
       lpeversion="1"
       weight="33.333333"
       steps="2"
       helper_size="0"
       apply_no_weight="true"
       apply_with_weight="true"
       only_selected="false" />
    <inkscape:path-effect
       effect="bspline"
       id="path-effect5151-7"
       is_visible="true"
       lpeversion="1"
       weight="33.333333"
       steps="2"
       helper_size="0"
       apply_no_weight="true"
       apply_with_weight="true"
       only_selected="false" />
    <inkscape:path-effect
       effect="bspline"
       id="path-effect5151-0"
       is_visible="true"
       lpeversion="1"
       weight="33.333333"
       steps="2"
       helper_size="0"
       apply_no_weight="true"
       apply_with_weight="true"
       only_selected="false" />
    <inkscape:path-effect
       effect="bspline"
       id="path-effect5151-06"
       is_visible="true"
       lpeversion="1"
       weight="33.333333"
       steps="2"
       helper_size="0"
       apply_no_weight="true"
       apply_with_weight="true"
       only_selected="false" />
    <inkscape:path-effect
       effect="bspline"
       id="path-effect5151-1"
       is_visible="true"
       lpeversion="1"
       weight="33.333333"
       steps="2"
       helper_size="0"
       apply_no_weight="true"
       apply_with_weight="true"
       only_selected="false" />
  </defs>
  <g
     inkscape:label="Layer 1"
     inkscape:groupmode="layer"
     id="layer1">
    <text
       xml:space="preserve"
       style="font-size:4.93889px;line-height:125%;font-family:'Noto Mono';-inkscape-font-specification:'Noto Mono, Normal';letter-spacing:0px;word-spacing:0px;writing-mode:lr-tb;fill:#000000;stroke:none;stroke-width:0.26499999;stroke-linecap:butt;stroke-linejoin:miter;stroke-dasharray:none;stroke-opacity:1"
       x="73"
       y="19"
       id="text1338"><tspan
         sodipodi:role="line"
         id="tspan1336"
         style="font-size:4.93889px;fill:#000000;stroke-width:0.26499999;stroke-dasharray:none;stroke:none"
         x="73"
         y="19">Image content</tspan></text>
    <text
       xml:space="preserve"
       style="font-size:4.93889px;line-height:125%;font-family:'Noto Mono';-inkscape-font-specification:'Noto Mono, Normal';letter-spacing:0px;word-spacing:0px;writing-mode:lr-tb;fill:#000000;fill-opacity:1;stroke:none;stroke-width:0.264583px;stroke-linecap:butt;stroke-linejoin:miter;stroke-opacity:1"
       x="70"
       y="40"
       id="text2025"><tspan
         sodipodi:role="line"
         id="tspan2023"
         style="font-size:4.93889px;fill:#000000;fill-opacity:1;stroke-width:0.264583px;stroke:none"
         x="70"
         y="40">1. Decode</tspan></text>
    <text
       xml:space="preserve"
       style="font-size:4.93889px;line-height:125%;font-family:'Noto Mono';-inkscape-font-specification:'Noto Mono, Normal';letter-spacing:0px;word-spacing:0px;writing-mode:lr-tb;fill:#000000;fill-opacity:1;stroke:none;stroke-width:0.264583px;stroke-linecap:butt;stroke-linejoin:miter;stroke-opacity:1"
       x="70"
       y="60"
       id="text2029"><tspan
         sodipodi:role="line"
         id="tspan2027"
         style="font-size:4.93889px;fill:#000000;fill-opacity:1;stroke-width:0.264583px;stroke:none"
         x="70"
         y="60">2. Convert</tspan></text>
    <text
       xml:space="preserve"
       style="font-size:4.93889px;line-height:125%;font-family:'Noto Mono';-inkscape-font-specification:'Noto Mono, Normal';letter-spacing:0px;word-spacing:0px;writing-mode:lr-tb;fill:#000000;fill-opacity:1;stroke:none;stroke-width:0.264583px;stroke-linecap:butt;stroke-linejoin:miter;stroke-opacity:1"
       x="70"
       y="80"
       id="text2033"><tspan
         sodipodi:role="line"
         id="tspan2031"
         style="font-size:4.93889px;fill:#000000;fill-opacity:1;stroke:none;stroke-width:0.264583px"
         x="70"
         y="80">3. Compose</tspan></text>
    <text
       xml:space="preserve"
       style="font-style:normal;font-variant:normal;font-weight:normal;font-stretch:normal;font-size:4.93889px;line-height:125%;font-family:'Noto Mono';-inkscape-font-specification:'Noto Mono, Normal';font-variant-ligatures:normal;font-variant-caps:normal;font-variant-numeric:normal;font-feature-settings:normal;text-align:start;writing-mode:lr-tb;text-anchor:start;opacity:1;fill:#000000;fill-opacity:1;stroke:none;stroke-width:0.264999;stroke-linecap:square;stroke-miterlimit:4;stroke-dasharray:none;stroke-dashoffset:0;stroke-opacity:1"
       x="70"
       y="100"
       id="text2041"><tspan
         sodipodi:role="line"
         id="tspan2039"
         style="font-size:4.93889px;stroke-width:0.265;stroke:none"
         x="70"
         y="100">4. Encode</tspan></text>
    <text
       xml:space="preserve"
       style="font-style:normal;font-variant:normal;font-weight:normal;font-stretch:normal;font-size:4.93889px;line-height:125%;font-family:'Noto Mono';-inkscape-font-specification:'Noto Mono, Normal';font-variant-ligatures:normal;font-variant-caps:normal;font-variant-numeric:normal;font-feature-settings:normal;text-align:start;writing-mode:lr-tb;text-anchor:start;opacity:1;fill:#000000;fill-opacity:1;stroke:none;stroke-width:0.264999;stroke-linecap:square;stroke-miterlimit:4;stroke-dasharray:none;stroke-dashoffset:0;stroke-opacity:1"
       x="70"
       y="120"
       id="text2045"><tspan
         sodipodi:role="line"
         id="tspan2043"
         style="font-size:4.93889px;stroke:none;stroke-width:0.265"
         x="70"
         y="120">5. Adjust</tspan><tspan
         sodipodi:role="line"
         style="font-size:4.93889px;stroke:none;stroke-width:0.265"
         x="70"
         y="126.17361"
         id="tspan2047">(settings UI)</tspan></text>
    <text
       xml:space="preserve"
       style="font-style:normal;font-variant:normal;font-weight:normal;font-stretch:normal;font-size:4.93889px;line-height:125%;font-family:'Noto Mono';-inkscape-font-specification:'Noto Mono, Normal';font-variant-ligatures:normal;font-variant-caps:normal;font-variant-numeric:normal;font-feature-settings:normal;text-align:start;writing-mode:lr-tb;text-anchor:start;opacity:1;fill:#000000;fill-opacity:1;stroke:none;stroke-width:0.264999;stroke-linecap:square;stroke-miterlimit:4;stroke-dasharray:none;stroke-dashoffset:0;stroke-opacity:1"
       x="70"
       y="170"
       id="text2051"><tspan
         sodipodi:role="line"
         id="tspan2049"
         style="font-size:4.93889px;stroke-width:0.265;stroke:none"
         x="70"
         y="170">6. Decode</tspan></text>
    <text
       xml:space="preserve"
       style="font-style:normal;font-variant:normal;font-weight:normal;font-stretch:normal;font-size:4.93889px;line-height:125%;font-family:'Noto Mono';-inkscape-font-specification:'Noto Mono, Normal';font-variant-ligatures:normal;font-variant-caps:normal;font-variant-numeric:normal;font-feature-settings:normal;text-align:start;writing-mode:lr-tb;text-anchor:start;opacity:1;fill:#000000;fill-opacity:1;stroke:none;stroke-width:0.264999;stroke-linecap:square;stroke-miterlimit:4;stroke-dasharray:none;stroke-dashoffset:0;stroke-opacity:1"
       x="70"
       y="190"
       id="text2055"><tspan
         sodipodi:role="line"
         id="tspan2053"
         style="font-size:4.93889px;stroke:none;stroke-width:0.265"
         x="70"
         y="190">7. Adjust</tspan><tspan
         sodipodi:role="line"
         style="font-size:4.93889px;stroke:none;stroke-width:0.265"
         x="70"
         y="196.17361"
         id="tspan2057">(knobs, map)</tspan></text>
    <text
       xml:space="preserve"
       style="font-style:normal;font-variant:normal;font-weight:normal;font-stretch:normal;font-size:4.93889px;line-height:125%;font-family:'Noto Mono';-inkscape-font-specification:'Noto Mono, Normal';font-variant-ligatures:normal;font-variant-caps:normal;font-variant-numeric:normal;font-feature-settings:normal;text-align:start;writing-mode:lr-tb;text-anchor:start;opacity:1;fill:#000000;fill-opacity:1;stroke:none;stroke-width:0.264999;stroke-linecap:square;stroke-miterlimit:4;stroke-dasharray:none;stroke-dashoffset:0;stroke-opacity:1"
       x="70"
       y="220"
       id="text2061"><tspan
         sodipodi:role="line"
         id="tspan2059"
         style="font-size:4.93889px;stroke:none;stroke-width:0.265"
         x="70"
         y="220">8. Emit</tspan></text>
    <text
       xml:space="preserve"
       style="font-style:normal;font-variant:normal;font-weight:normal;font-stretch:normal;font-size:4.93889px;line-height:125%;font-family:'Noto Mono';-inkscape-font-specification:'Noto Mono, Normal';font-variant-ligatures:normal;font-variant-caps:normal;font-variant-numeric:normal;font-feature-settings:normal;text-align:start;writing-mode:lr-tb;text-anchor:start;opacity:1;fill:#000000;fill-opacity:1;stroke:none;stroke-width:0.264999;stroke-linecap:square;stroke-miterlimit:4;stroke-dasharray:none;stroke-dashoffset:0;stroke-opacity:1"
       x="82.570602"
       y="243.68102"
       id="text2065"><tspan
         sodipodi:role="line"
         id="tspan2063"
         style="font-size:4.93889px;stroke-width:0.265;stroke:none"
         x="82.570602"
         y="243.68102">Light</tspan></text>
    <rect
       style="opacity:1;fill:none;fill-opacity:1;stroke:#000000;stroke-width:0.264999;stroke-linecap:square;stroke-miterlimit:4;stroke-dasharray:none;stroke-dashoffset:0;stroke-opacity:1"
       id="rect2148"
       width="44"
       height="7"
       x="69"
       y="35" />
    <rect
       style="opacity:1;fill:none;fill-opacity:1;stroke:#000000;stroke-width:0.264999;stroke-linecap:square;stroke-miterlimit:4;stroke-dasharray:none;stroke-dashoffset:0;stroke-opacity:1"
       id="rect2154"
       width="44.000008"
       height="7.0000038"
       x="68.999992"
       y="54.999996" />
    <rect
       style="opacity:1;fill:none;fill-opacity:1;stroke:#000000;stroke-width:0.264999;stroke-linecap:square;stroke-miterlimit:4;stroke-dasharray:none;stroke-dashoffset:0;stroke-opacity:1"
       id="rect2156"
       width="44.000004"
       height="7"
       x="68.999992"
       y="75" />
    <rect
       style="opacity:1;fill:none;fill-opacity:1;stroke:#000000;stroke-width:0.264999;stroke-linecap:square;stroke-miterlimit:4;stroke-dasharray:none;stroke-dashoffset:0;stroke-opacity:1"
       id="rect2158"
       width="44.000004"
       height="7"
       x="68.999992"
       y="95" />
    <rect
       style="opacity:1;fill:none;fill-opacity:1;stroke:#000000;stroke-width:0.264999;stroke-linecap:square;stroke-miterlimit:4;stroke-dasharray:none;stroke-dashoffset:0;stroke-opacity:1"
       id="rect2160"
       width="44.000004"
       height="14"
       x="68.999992"
       y="115" />
    <rect
       style="opacity:1;fill:none;fill-opacity:1;stroke:#000000;stroke-width:0.264999;stroke-linecap:square;stroke-miterlimit:4;stroke-dasharray:none;stroke-dashoffset:0;stroke-opacity:1"
       id="rect2162"
       width="44.000004"
       height="7"
       x="68.999992"
       y="165" />
    <rect
       style="opacity:1;fill:none;fill-opacity:1;stroke:#000000;stroke-width:0.264999;stroke-linecap:square;stroke-miterlimit:4;stroke-dasharray:none;stroke-dashoffset:0;stroke-opacity:1"
       id="rect2164"
       width="44.000004"
       height="14"
       x="68.999992"
       y="185" />
    <rect
       style="opacity:1;fill:none;fill-opacity:1;stroke:#000000;stroke-width:0.264999;stroke-linecap:square;stroke-miterlimit:4;stroke-dasharray:none;stroke-dashoffset:0;stroke-opacity:1"
       id="rect2166"
       width="44"
       height="7"
       x="69"
       y="215" />
    <rect
       style="opacity:1;fill:none;fill-opacity:1;stroke:#000000;stroke-width:0.529167;stroke-linecap:square;stroke-miterlimit:4;stroke-dasharray:0.529167, 3.175;stroke-dashoffset:0;stroke-opacity:1"
       id="rect2205"
       width="109.99999"
       height="70"
       x="10"
       y="160" />
    <rect
       style="opacity:1;fill:none;fill-opacity:1;stroke:#000000;stroke-width:0.529167;stroke-linecap:square;stroke-miterlimit:4;stroke-dasharray:0.529167, 3.175;stroke-dashoffset:0;stroke-opacity:1"
       id="rect2207"
       width="109.99999"
       height="100"
       x="10"
       y="30.000002" />
    <text
       xml:space="preserve"
       style="font-style:normal;font-variant:normal;font-weight:normal;font-stretch:normal;font-size:4.9389px;line-height:125%;font-family:'Noto Mono';-inkscape-font-specification:'Noto Mono, Normal';font-variant-ligatures:normal;font-variant-caps:normal;font-variant-numeric:normal;font-feature-settings:normal;text-align:start;writing-mode:lr-tb;text-anchor:start;opacity:1;fill:#000000;fill-opacity:1;stroke:none;stroke-width:0.26458333;stroke-linecap:square;stroke-miterlimit:4;stroke-dasharray:none;stroke-dashoffset:0;stroke-opacity:1"
       x="20"
       y="40"
       id="text2215"><tspan
         sodipodi:role="line"
         id="tspan2213"
         style="stroke-width:0.26458333;stroke-dasharray:none;stroke-dashoffset:0;fill:#000000;fill-opacity:1;stroke:none"
         x="20"
         y="40">Compositor</tspan></text>
    <text
       xml:space="preserve"
       style="font-style:normal;font-variant:normal;font-weight:normal;font-stretch:normal;font-size:4.9389px;line-height:125%;font-family:'Noto Mono';-inkscape-font-specification:'Noto Mono, Normal';font-variant-ligatures:normal;font-variant-caps:normal;font-variant-numeric:normal;font-feature-settings:normal;text-align:start;writing-mode:lr-tb;text-anchor:start;opacity:1;fill:#000000;fill-opacity:1;stroke:none;stroke-width:0.264583;stroke-linecap:square;stroke-miterlimit:4;stroke-dasharray:none;stroke-dashoffset:0;stroke-opacity:1"
       x="20"
       y="170"
       id="text2219"><tspan
         sodipodi:role="line"
         id="tspan2217"
         style="stroke-width:0.264583;stroke:none"
         x="20"
         y="170">Monitor</tspan></text>
    <text
       xml:space="preserve"
       style="font-style:normal;font-variant:normal;font-weight:normal;font-stretch:normal;font-size:4.9389px;line-height:125%;font-family:'Noto Mono';-inkscape-font-specification:'Noto Mono, Normal';font-variant-ligatures:normal;font-variant-caps:normal;font-variant-numeric:normal;font-feature-settings:normal;text-align:start;writing-mode:lr-tb;text-anchor:start;opacity:1;fill:#000000;fill-opacity:1;stroke:none;stroke-width:0.264583;stroke-linecap:square;stroke-miterlimit:4;stroke-dasharray:none;stroke-dashoffset:0;stroke-opacity:1"
       x="69.821198"
       y="149.81947"
       id="text2223"><tspan
         sodipodi:role="line"
         id="tspan2221"
         style="stroke-width:0.264583;stroke:none"
         x="69.821198"
         y="149.81947">Cable</tspan></text>
    <path
       style="opacity:1;fill:#000000;fill-opacity:1;stroke:#000000;stroke-width:0.52916667;stroke-linecap:square;stroke-miterlimit:4;stroke-dasharray:none;stroke-dashoffset:0;stroke-opacity:1;marker-end:url(#Arrow3)"
       d="m 90.999999,43.000001 c 0,3.666929 0,7.333596 0,10.999999"
       id="path2279"
       inkscape:path-effect="#path-effect2281"
       inkscape:original-d="m 90.999999,43.000001 c 2.65e-4,3.666929 2.65e-4,7.333596 0,10.999999" />
    <path
       style="fill:#000000;fill-opacity:1;stroke:#000000;stroke-width:0.529167;stroke-linecap:square;stroke-miterlimit:4;stroke-dasharray:none;stroke-dashoffset:0;stroke-opacity:1;marker-end:url(#Arrow3-3)"
       d="M 91,23.000001 C 91,26.66693 91,30.333597 91,34"
       id="path2279-5"
       inkscape:path-effect="#path-effect2281-7"
       inkscape:original-d="M 91,23.000001 C 91.000265,26.66693 91.000265,30.333597 91,34" />
    <path
       style="fill:#000000;fill-opacity:1;stroke:#000000;stroke-width:0.529167;stroke-linecap:square;stroke-miterlimit:4;stroke-dasharray:none;stroke-dashoffset:0;stroke-opacity:1;marker-end:url(#Arrow3-35)"
       d="m 90.999999,63 c 0,3.666929 0,7.333596 0,10.999999"
       id="path2279-1"
       inkscape:path-effect="#path-effect2281-9"
       inkscape:original-d="m 90.999999,63 c 2.65e-4,3.666929 2.65e-4,7.333596 0,10.999999" />
    <path
       style="fill:#000000;fill-opacity:1;stroke:#000000;stroke-width:0.529167;stroke-linecap:square;stroke-miterlimit:4;stroke-dasharray:none;stroke-dashoffset:0;stroke-opacity:1;marker-end:url(#Arrow3-2)"
       d="m 90.999999,83 c 0,3.666929 0,7.333596 0,10.999999"
       id="path2279-9"
       inkscape:path-effect="#path-effect2281-0"
       inkscape:original-d="m 90.999999,83 c 2.65e-4,3.666929 2.65e-4,7.333596 0,10.999999" />
    <path
       style="fill:#000000;fill-opacity:1;stroke:#000000;stroke-width:0.529167;stroke-linecap:square;stroke-miterlimit:4;stroke-dasharray:none;stroke-dashoffset:0;stroke-opacity:1;marker-end:url(#Arrow3-36)"
       d="m 90.999999,103 c 0,3.66693 0,7.3336 0,11"
       id="path2279-2"
       inkscape:path-effect="#path-effect2281-6"
       inkscape:original-d="m 90.999999,103 c 2.65e-4,3.66693 2.65e-4,7.3336 0,11" />
    <path
       style="fill:#000000;fill-opacity:1;stroke:#000000;stroke-width:0.529167;stroke-linecap:square;stroke-miterlimit:4;stroke-dasharray:none;stroke-dashoffset:0;stroke-opacity:1;marker-end:url(#Arrow3-6)"
       d="m 91,131 c 0,11.00026 0,22.00027 0,33"
       id="path2279-7"
       inkscape:path-effect="#path-effect2281-8"
       inkscape:original-d="m 91,131 c 2.65e-4,11.00026 2.65e-4,22.00027 0,33"
       sodipodi:nodetypes="cc" />
    <path
       style="fill:#000000;fill-opacity:1;stroke:#000000;stroke-width:0.529167;stroke-linecap:square;stroke-miterlimit:4;stroke-dasharray:none;stroke-dashoffset:0;stroke-opacity:1;marker-end:url(#Arrow3-9)"
       d="m 90.999999,173 c 0,3.66693 0,7.3336 0,11"
       id="path2279-3"
       inkscape:path-effect="#path-effect2281-02"
       inkscape:original-d="m 90.999999,173 c 2.65e-4,3.66693 2.65e-4,7.3336 0,11" />
    <path
       style="fill:#000000;fill-opacity:1;stroke:#000000;stroke-width:0.529167;stroke-linecap:square;stroke-miterlimit:4;stroke-dasharray:none;stroke-dashoffset:0;stroke-opacity:1;marker-end:url(#Arrow3-7)"
       d="m 91,200 c 0,4.66693 -10e-7,9.3336 -10e-7,14"
       id="path2279-28"
       inkscape:path-effect="#path-effect2281-92"
       inkscape:original-d="m 91,200 c 2.64e-4,4.66693 2.64e-4,9.3336 -10e-7,14"
       sodipodi:nodetypes="cc" />
    <path
       style="fill:#000000;fill-opacity:1;stroke:#000000;stroke-width:0.529167;stroke-linecap:square;stroke-miterlimit:4;stroke-dasharray:none;stroke-dashoffset:0;stroke-opacity:1;marker-end:url(#Arrow3-97)"
       d="m 91,223 c 0,5.00026 0,10.00027 0,15"
       id="path2279-29"
       inkscape:path-effect="#path-effect2281-61"
       inkscape:original-d="m 91,223 c 2.65e-4,5.00026 2.65e-4,10.00027 0,15"
       sodipodi:nodetypes="cc" />
    <g
       id="g5209"
       transform="translate(0,-21.999999)">
      <path
         style="opacity:1;fill:none;fill-opacity:1;stroke:#000000;stroke-width:0.264583;stroke-linecap:square;stroke-miterlimit:4;stroke-dasharray:none;stroke-dashoffset:0;stroke-opacity:1"
         id="path5147"
         sodipodi:type="arc"
         sodipodi:cx="91"
         sodipodi:cy="48"
         sodipodi:rx="5"
         sodipodi:ry="2"
         sodipodi:start="4.9081677"
         sodipodi:end="4.5006324"
         sodipodi:arc-type="arc"
         d="m 91.972652,46.038207 a 5,2 0 0 1 4.005324,2.149307 5,2 0 0 1 -4.938032,1.812422 5,2 0 0 1 -5.009794,-1.780632 5,2 0 0 1 3.918962,-2.17463"
         sodipodi:open="true" />
      <path
         style="opacity:1;fill:none;fill-opacity:1;stroke:#000000;stroke-width:0.529167;stroke-linecap:butt;stroke-miterlimit:4;stroke-dasharray:none;stroke-dashoffset:0;stroke-opacity:1"
         d="m 96,47.999999 c 11.00026,0 22.00026,0 33,0"
         id="path5149"
         inkscape:path-effect="#path-effect5151"
         inkscape:original-d="m 96,47.999999 c 11.00026,2.64e-4 22.00026,2.64e-4 33,0" />
    </g>
    <path
       style="fill:none;fill-opacity:1;stroke:#000000;stroke-width:0.264583;stroke-linecap:square;stroke-miterlimit:4;stroke-dasharray:none;stroke-dashoffset:0;stroke-opacity:1"
       id="path5147-9"
       sodipodi:type="arc"
       sodipodi:cx="91"
       sodipodi:cy="68"
       sodipodi:rx="5"
       sodipodi:ry="2"
       sodipodi:start="4.9081677"
       sodipodi:end="4.5006324"
       sodipodi:arc-type="arc"
       d="m 91.972652,66.038207 a 5,2 0 0 1 4.005324,2.149307 5,2 0 0 1 -4.938032,1.812422 5,2 0 0 1 -5.009794,-1.780632 5,2 0 0 1 3.918962,-2.17463"
       sodipodi:open="true" />
    <path
       style="fill:none;fill-opacity:1;stroke:#000000;stroke-width:0.529167;stroke-linecap:butt;stroke-miterlimit:4;stroke-dasharray:none;stroke-dashoffset:0;stroke-opacity:1"
       d="m 96,67.999999 c 9.66693,0 19.33359,10e-7 29,10e-7"
       id="path5149-4"
       inkscape:path-effect="#path-effect5151-3"
       inkscape:original-d="m 96,67.999999 c 9.66693,2.65e-4 19.33359,2.65e-4 29,10e-7"
       sodipodi:nodetypes="cc" />
    <path
       style="fill:none;fill-opacity:1;stroke:#000000;stroke-width:0.264583;stroke-linecap:square;stroke-miterlimit:4;stroke-dasharray:none;stroke-dashoffset:0;stroke-opacity:1"
       id="path5147-4"
       sodipodi:type="arc"
       sodipodi:cx="91"
       sodipodi:cy="88"
       sodipodi:rx="5"
       sodipodi:ry="2"
       sodipodi:start="4.9081677"
       sodipodi:end="4.5006324"
       sodipodi:arc-type="arc"
       d="m 91.972652,86.038207 a 5,2 0 0 1 4.005324,2.149307 5,2 0 0 1 -4.938032,1.812422 5,2 0 0 1 -5.009794,-1.780632 5,2 0 0 1 3.918962,-2.17463"
       sodipodi:open="true" />
    <path
       style="fill:none;fill-opacity:1;stroke:#000000;stroke-width:0.529167;stroke-linecap:butt;stroke-miterlimit:4;stroke-dasharray:none;stroke-dashoffset:0;stroke-opacity:1"
       d="m 96,87.999999 c 9.66693,0 19.33359,10e-7 29,10e-7"
       id="path5149-5"
       inkscape:path-effect="#path-effect5151-7"
       inkscape:original-d="m 96,87.999999 c 9.66693,2.65e-4 19.33359,2.65e-4 29,10e-7"
       sodipodi:nodetypes="cc" />
    <g
       id="g5209-3"
       transform="translate(0,60.000001)">
      <path
         style="opacity:1;fill:none;fill-opacity:1;stroke:#000000;stroke-width:0.264583;stroke-linecap:square;stroke-miterlimit:4;stroke-dasharray:none;stroke-dashoffset:0;stroke-opacity:1"
         id="path5147-6"
         sodipodi:type="arc"
         sodipodi:cx="91"
         sodipodi:cy="48"
         sodipodi:rx="5"
         sodipodi:ry="2"
         sodipodi:start="4.9081677"
         sodipodi:end="4.5006324"
         sodipodi:arc-type="arc"
         d="m 91.972652,46.038207 a 5,2 0 0 1 4.005324,2.149307 5,2 0 0 1 -4.938032,1.812422 5,2 0 0 1 -5.009794,-1.780632 5,2 0 0 1 3.918962,-2.17463"
         sodipodi:open="true" />
      <path
         style="opacity:1;fill:none;fill-opacity:1;stroke:#000000;stroke-width:0.529167;stroke-linecap:butt;stroke-miterlimit:4;stroke-dasharray:none;stroke-dashoffset:0;stroke-opacity:1"
         d="m 96,47.999999 c 11.00026,0 22.00026,0 33,0"
         id="path5149-1"
         inkscape:path-effect="#path-effect5151-0"
         inkscape:original-d="m 96,47.999999 c 11.00026,2.64e-4 22.00026,2.64e-4 33,0" />
    </g>
    <g
       id="g5209-32"
       transform="translate(0,108)">
      <path
         style="opacity:1;fill:none;fill-opacity:1;stroke:#000000;stroke-width:0.264583;stroke-linecap:square;stroke-miterlimit:4;stroke-dasharray:none;stroke-dashoffset:0;stroke-opacity:1"
         id="path5147-0"
         sodipodi:type="arc"
         sodipodi:cx="91"
         sodipodi:cy="48"
         sodipodi:rx="5"
         sodipodi:ry="2"
         sodipodi:start="4.9081677"
         sodipodi:end="4.5006324"
         sodipodi:arc-type="arc"
         d="m 91.972652,46.038207 a 5,2 0 0 1 4.005324,2.149307 5,2 0 0 1 -4.938032,1.812422 5,2 0 0 1 -5.009794,-1.780632 5,2 0 0 1 3.918962,-2.17463"
         sodipodi:open="true" />
      <path
         style="opacity:1;fill:none;fill-opacity:1;stroke:#000000;stroke-width:0.529167;stroke-linecap:butt;stroke-miterlimit:4;stroke-dasharray:none;stroke-dashoffset:0;stroke-opacity:1"
         d="m 96,47.999999 c 11.00026,0 22.00026,0 33,0"
         id="path5149-6"
         inkscape:path-effect="#path-effect5151-06"
         inkscape:original-d="m 96,47.999999 c 11.00026,2.64e-4 22.00026,2.64e-4 33,0" />
    </g>
    <g
       id="g5209-5"
       transform="translate(0,185)">
      <path
         style="opacity:1;fill:none;fill-opacity:1;stroke:#000000;stroke-width:0.264583;stroke-linecap:square;stroke-miterlimit:4;stroke-dasharray:none;stroke-dashoffset:0;stroke-opacity:1"
         id="path5147-5"
         sodipodi:type="arc"
         sodipodi:cx="91"
         sodipodi:cy="48"
         sodipodi:rx="5"
         sodipodi:ry="2"
         sodipodi:start="4.9081677"
         sodipodi:end="4.5006324"
         sodipodi:arc-type="arc"
         d="m 91.972652,46.038207 a 5,2 0 0 1 4.005324,2.149307 5,2 0 0 1 -4.938032,1.812422 5,2 0 0 1 -5.009794,-1.780632 5,2 0 0 1 3.918962,-2.17463"
         sodipodi:open="true" />
      <path
         style="opacity:1;fill:none;fill-opacity:1;stroke:#000000;stroke-width:0.529167;stroke-linecap:butt;stroke-miterlimit:4;stroke-dasharray:none;stroke-dashoffset:0;stroke-opacity:1"
         d="m 96,47.999999 c 11.00026,0 22.00026,0 33,0"
         id="path5149-47"
         inkscape:path-effect="#path-effect5151-1"
         inkscape:original-d="m 96,47.999999 c 11.00026,2.64e-4 22.00026,2.64e-4 33,0" />
    </g>
    <path
       style="opacity:1;fill:none;fill-opacity:1;stroke:#000000;stroke-width:0.529167;stroke-linecap:butt;stroke-miterlimit:4;stroke-dasharray:none;stroke-dashoffset:0;stroke-opacity:1"
       d="m 129,77.999999 c -1.33307,0 -2.6664,0 -4,0"
       id="path5617"
       inkscape:path-effect="#path-effect5619"
       inkscape:original-d="m 129,77.999999 c -1.33307,2.65e-4 -2.6664,2.65e-4 -4,0" />
    <path
       style="opacity:1;fill:none;fill-opacity:1;stroke:#000000;stroke-width:0.529167;stroke-linecap:round;stroke-miterlimit:4;stroke-dasharray:none;stroke-dashoffset:0;stroke-opacity:1"
       d="M 125,67.999998 C 125,74.666929 125,81.333596 125,88"
       id="path5675"
       inkscape:path-effect="#path-effect5677"
       inkscape:original-d="m 125,67.999998 c 2.6e-4,6.666931 2.6e-4,13.333598 0,20.000002" />
    <text
       xml:space="preserve"
       style="font-style:normal;font-variant:normal;font-weight:normal;font-stretch:normal;font-size:4.9389px;line-height:125%;font-family:'Noto Mono';-inkscape-font-specification:'Noto Mono, Normal';font-variant-ligatures:normal;font-variant-caps:normal;font-variant-numeric:normal;font-feature-settings:normal;text-align:start;writing-mode:lr-tb;text-anchor:start;opacity:1;fill:#000000;fill-opacity:1;stroke:none;stroke-width:0.264999;stroke-linecap:round;stroke-miterlimit:4;stroke-dasharray:none;stroke-dashoffset:0;stroke-opacity:1"
       x="131"
       y="26"
       id="text5739"><tspan
         sodipodi:role="line"
         id="tspan5737"
         style="fill:#000000;fill-opacity:1;stroke-width:0.265;stroke:none"
         x="131"
         y="26">Surface</tspan><tspan
         sodipodi:role="line"
         style="fill:#000000;fill-opacity:1;stroke-width:0.265;stroke:none"
         x="131"
         y="32.173626"
         id="tspan5741">image description</tspan></text>
    <text
       xml:space="preserve"
       style="font-style:normal;font-variant:normal;font-weight:normal;font-stretch:normal;font-size:4.9389px;line-height:125%;font-family:'Noto Mono';-inkscape-font-specification:'Noto Mono, Normal';font-variant-ligatures:normal;font-variant-caps:normal;font-variant-numeric:normal;font-feature-settings:normal;text-align:start;writing-mode:lr-tb;text-anchor:start;opacity:1;fill:#000000;fill-opacity:1;stroke:none;stroke-width:0.264999;stroke-linecap:round;stroke-miterlimit:4;stroke-dasharray:none;stroke-dashoffset:0;stroke-opacity:1"
       x="131"
       y="78"
       id="text5745"><tspan
         sodipodi:role="line"
         id="tspan5743"
         style="stroke-width:0.265;stroke:none"
         x="131"
         y="78">Compositor blending</tspan><tspan
         sodipodi:role="line"
         style="stroke-width:0.265;stroke:none"
         x="131"
         y="84.173622"
         id="tspan5747">colorimetry and</tspan><tspan
         sodipodi:role="line"
         style="stroke-width:0.265;stroke:none"
         x="131"
         y="90.347252"
         id="tspan5749">viewing conditions</tspan></text>
    <text
       xml:space="preserve"
       style="font-style:normal;font-variant:normal;font-weight:normal;font-stretch:normal;font-size:4.9389px;line-height:125%;font-family:'Noto Mono';-inkscape-font-specification:'Noto Mono, Normal';font-variant-ligatures:normal;font-variant-caps:normal;font-variant-numeric:normal;font-feature-settings:normal;text-align:start;writing-mode:lr-tb;text-anchor:start;opacity:1;fill:#000000;fill-opacity:1;stroke:none;stroke-width:0.264999;stroke-linecap:round;stroke-miterlimit:4;stroke-dasharray:none;stroke-dashoffset:0;stroke-opacity:1"
       x="131"
       y="108"
       id="text5753"><tspan
         sodipodi:role="line"
         id="tspan5751"
         style="stroke-width:0.265;stroke:none"
         x="131"
         y="108">Output</tspan><tspan
         sodipodi:role="line"
         style="stroke-width:0.265;stroke:none"
         x="131"
         y="114.17362"
         id="tspan5755">image description</tspan></text>
    <text
       xml:space="preserve"
       style="font-style:normal;font-variant:normal;font-weight:normal;font-stretch:normal;font-size:4.9389px;line-height:125%;font-family:'Noto Mono';-inkscape-font-specification:'Noto Mono, Normal';font-variant-ligatures:normal;font-variant-caps:normal;font-variant-numeric:normal;font-feature-settings:normal;text-align:start;writing-mode:lr-tb;text-anchor:start;opacity:1;fill:#000000;fill-opacity:1;stroke:none;stroke-width:0.264999;stroke-linecap:round;stroke-miterlimit:4;stroke-dasharray:none;stroke-dashoffset:0;stroke-opacity:1"
       x="131"
       y="156"
       id="text5759"><tspan
         sodipodi:role="line"
         id="tspan5757"
         style="stroke-width:0.265;stroke:none"
         x="131"
         y="156">Monitor expected</tspan><tspan
         sodipodi:role="line"
         style="stroke-width:0.265;stroke:none"
         x="131"
         y="162.17363"
         id="tspan5761">colorimetry and</tspan><tspan
         sodipodi:role="line"
         style="stroke-width:0.265;stroke:none"
         x="131"
         y="168.34724"
         id="tspan5763">viewing conditions</tspan></text>
    <text
       xml:space="preserve"
       style="font-style:normal;font-variant:normal;font-weight:normal;font-stretch:normal;font-size:4.9389px;line-height:125%;font-family:'Noto Mono';-inkscape-font-specification:'Noto Mono, Normal';font-variant-ligatures:normal;font-variant-caps:normal;font-variant-numeric:normal;font-feature-settings:normal;text-align:start;writing-mode:lr-tb;text-anchor:start;opacity:1;fill:#000000;fill-opacity:1;stroke:none;stroke-width:0.264999;stroke-linecap:round;stroke-miterlimit:4;stroke-dasharray:none;stroke-dashoffset:0;stroke-opacity:1"
       x="131"
       y="233"
       id="text5767"><tspan
         sodipodi:role="line"
         id="tspan5765"
         style="stroke-width:0.265;stroke:none"
         x="131"
         y="233">Actual light</tspan><tspan
         sodipodi:role="line"
         style="stroke-width:0.265;stroke:none"
         x="131"
         y="239.17363"
         id="tspan5769">colorimetry and</tspan><tspan
         sodipodi:role="line"
         style="stroke-width:0.265;stroke:none"
         x="131"
         y="245.34724"
         id="tspan5771">viewing conditions</tspan></text>
    <path
       style="opacity:1;fill:none;fill-opacity:1;stroke:#000000;stroke-width:0.529167;stroke-linecap:butt;stroke-linejoin:miter;stroke-miterlimit:4;stroke-dasharray:none;stroke-dashoffset:0;stroke-opacity:1;marker-start:url(#TriangleStart);marker-end:url(#marker6328)"
       d="m 69.999999,110 c -3.33307,0 -6.666486,0 -8.333243,3.33339 -1.666757,3.33338 -1.666757,10.00001 -1.666757,15.00016 0,5.00015 0,8.33323 -3.333351,9.99984 C 53.333297,140 46.667066,140 46.667067,140 c 0,0 6.666486,0 9.999709,1.66681 C 60,143.33362 60,146.66692 60,161.33364 60,176.00035 60,201.9994 61.666855,214.9997 63.333709,228 66.666931,228 70,228"
       id="path5952"
       inkscape:path-effect="#path-effect5954"
       inkscape:original-d="m 69.999999,110 c -3.33307,2.6e-4 -6.666486,2.6e-4 -10.000001,0 2.65e-4,6.66677 2.66e-4,13.3334 2e-6,20 2.64e-4,3.3337 2.63e-4,6.66678 -2e-6,10 -6.666701,2.6e-4 -13.332932,2.6e-4 -19.999998,0 6.667067,2.6e-4 13.333553,2.6e-4 20,0 2.65e-4,3.33362 2.65e-4,6.66692 0,10 2.65e-4,26.00035 2.65e-4,51.9994 0,78 3.333709,2.6e-4 6.666931,2.6e-4 10,0"
       sodipodi:nodetypes="ccccccccc" />
    <text
       xml:space="preserve"
       style="font-style:normal;font-variant:normal;font-weight:normal;font-stretch:normal;font-size:4.9389px;line-height:125%;font-family:'Noto Mono';-inkscape-font-specification:'Noto Mono, Normal';font-variant-ligatures:normal;font-variant-caps:normal;font-variant-numeric:normal;font-feature-settings:normal;text-align:start;writing-mode:lr-tb;text-anchor:start;fill:#000000;fill-opacity:1;stroke:none;stroke-width:0.264583;stroke-linecap:square;stroke-miterlimit:4;stroke-dasharray:none;stroke-dashoffset:0;stroke-opacity:1"
       x="9.8211985"
       y="140.81947"
       id="text2219-6"><tspan
         sodipodi:role="line"
         id="tspan2217-5"
         style="stroke-width:0.264583;stroke:none"
         x="9.8211985"
         y="140.81947">Calibration</tspan></text>
  </g>
  <metadata
     id="metadata1146">
    <rdf:RDF>
      <cc:Work
         rdf:about="">
        <dc:creator>
          <cc:Agent>
            <dc:title>Pekka Paalanen &lt;pekka.paalanen@collabora.com&gt;</dc:title>
          </cc:Agent>
        </dc:creator>
        <dc:rights>
          <cc:Agent>
            <dc:title>2023 Collabora Ltd.</dc:title>
          </cc:Agent>
        </dc:rights>
        <cc:license
           rdf:resource="http://creativecommons.org/licenses/by-sa/4.0/" />
      </cc:Work>
      <cc:License
         rdf:about="http://creativecommons.org/licenses/by-sa/4.0/">
        <cc:permits
           rdf:resource="http://creativecommons.org/ns#Reproduction" />
        <cc:permits
           rdf:resource="http://creativecommons.org/ns#Distribution" />
        <cc:requires
           rdf:resource="http://creativecommons.org/ns#Notice" />
        <cc:requires
           rdf:resource="http://creativecommons.org/ns#Attribution" />
        <cc:permits
           rdf:resource="http://creativecommons.org/ns#DerivativeWorks" />
        <cc:requires
           rdf:resource="http://creativecommons.org/ns#ShareAlike" />
      </cc:License>
    </rdf:RDF>
  </metadata>
</svg>
